[
  {
    "language": "en-US",
    "text": "Release Name\nLMD-v2.9.3\n\nWhat's New\n- Upgrade order status notification\n- Improvement paylater information\n- Upgrade security account information\n- Upgrade cart UI\n- Improvement account menu\n- Bug Fixing"
  },
  {
    "language": "id-ID",
    "text": "Release Name\nLMD-v2.9.3\n\nWhat's New\n- Peningkatan pemberitahuan status pemesanan\n- Perbaikan informasi Paylater\n- Peningkatan keamanan informasi rekening\n- Peningkatan tampilan keranjang\n- Perubahan info Akun\n- Perbaikan Bug"
  }
]
